<?xml version="1.0" encoding="utf-8"?>
<!-- Generator: Adobe Illustrator 16.0.0, SVG Export Plug-In . SVG Version: 6.00 Build 0)  -->
<!DOCTYPE svg PUBLIC "-//W3C//DTD SVG 1.1//EN" "http://www.w3.org/Graphics/SVG/1.1/DTD/svg11.dtd">
<svg version="1.1" id="Layer_1" xmlns="http://www.w3.org/2000/svg" xmlns:xlink="http://www.w3.org/1999/xlink" x="0px" y="0px"
	 width="936px" height="936px" viewBox="0 0 936 936" enable-background="new 0 0 936 936" xml:space="preserve">
<g>
	<defs>
		<rect id="SVGID_1_" width="936" height="936"/>
	</defs>
	<clipPath id="SVGID_2_">
		<use xlink:href="#SVGID_1_"  overflow="visible"/>
	</clipPath>
	<g clip-path="url(#SVGID_2_)">
		<defs>
			<rect id="SVGID_3_" width="936" height="936"/>
		</defs>
		<clipPath id="SVGID_4_">
			<use xlink:href="#SVGID_3_"  overflow="visible"/>
		</clipPath>
		<path clip-path="url(#SVGID_4_)" fill="#FFFFFF" d="M936,468C936,209.53,726.47,0,468,0S0,209.53,0,468s209.53,468,468,468
			S936,726.47,936,468"/>
		<g opacity="0.39" clip-path="url(#SVGID_4_)">
			<g>
				<defs>
					<rect id="SVGID_5_" x="818" y="428" width="78" height="78"/>
				</defs>
				<clipPath id="SVGID_6_">
					<use xlink:href="#SVGID_5_"  overflow="visible"/>
				</clipPath>
				<path clip-path="url(#SVGID_6_)" fill="#333333" d="M896,467c0-21.539-17.461-39-39-39s-39,17.461-39,39s17.461,39,39,39
					S896,488.539,896,467"/>
			</g>
		</g>
		<g opacity="0.39" clip-path="url(#SVGID_4_)">
			<g>
				<defs>
					<rect id="SVGID_7_" x="40" y="428" width="78" height="78"/>
				</defs>
				<clipPath id="SVGID_8_">
					<use xlink:href="#SVGID_7_"  overflow="visible"/>
				</clipPath>
				<path clip-path="url(#SVGID_8_)" fill="#333333" d="M118,467c0-21.539-17.461-39-39-39s-39,17.461-39,39s17.461,39,39,39
					S118,488.539,118,467"/>
			</g>
		</g>
		<path clip-path="url(#SVGID_4_)" fill="#333333" d="M299.629,433.099c-25.828,14.912-25.828,52.192,0,67.104l212.258,122.547
			C537.715,637.662,570,619.021,570,589.197v-0.144c0-18.239,11.43-34.32,28.436-40.913C630.947,535.539,654,503.963,654,467
			c0-36.962-23.053-68.539-55.564-81.14C581.43,379.267,570,363.186,570,344.947v-0.843c0-29.824-32.285-48.464-58.113-33.552
			L299.629,433.099 M605.841,470.56c-1.66,18.624-16.658,33.622-35.282,35.281c-24.297,2.165-44.566-18.104-42.4-42.4
			c1.661-18.624,16.659-33.622,35.283-35.281C587.737,425.995,608.007,446.263,605.841,470.56"/>
		
			<circle clip-path="url(#SVGID_4_)" fill="none" stroke="#B3B3B3" stroke-width="9" stroke-miterlimit="10" cx="468" cy="467" r="389"/>
	</g>
</g>
</svg>
